aula2---dataviz-92592507211d4eb5977b5ac13fa0fc8a
…
Como deve ser ser a relação entre comprimento de nadadeira e massa corporal? Positiva? Negativa? Linear? Não-linear?

Por acaso essa relação varia de acordo com a espécie de pinguim?

E de acordo com a ilha em que eles vivem?

2.2.1 O data frame ********penguins********

Data frame é uma coleção retangular de variáveis e observações em colunas e linhas.

********penguins******** contem 344 observações coletadas e disponibilizadas pela Dra. Kristen Gorman e a Estação Palmer na antartica.

penguins
#> # A tibble: 344 × 8
#>   species island    bill_length_mm bill_depth_mm flippe…¹ body_…² sex    year
#>   <fct>   <fct>              <dbl>         <dbl>    <int>   <int> <fct> <int>
#> 1 Adelie  Torgersen           39.1          18.7      181    3750 male   2007
#> 2 Adelie  Torgersen           39.5          17.4      186    3800 fema…  2007
#> 3 Adelie  Torgersen           40.3          18        195    3250 fema…  2007
#> 4 Adelie  Torgersen           NA            NA         NA      NA <NA>   2007
#> 5 Adelie  Torgersen           36.7          19.3      193    3450 fema…  2007
#> 6 Adelie  Torgersen           39.3          20.6      190    3650 male   2007
#> # … with 338 more rows, and abbreviated variable names ¹flipper_length_mm,
#> #   ²body_mass_g
…
Untitled

Um histograma divide o eixo x em caixas igualmente espaçadas de modo que a sua altura represente o número de observações dentro dela. No gráfico acima a barra mais alta tem 39 observações de pinguins com massa corporal em gramas (body_mass_g) entre 3.500 e 3.700 gramas, justamente os limites da caixa.

penguins |>
  count(cut_width(body_mass_g, 200))
#> # A tibble: 19 × 2
#>   `cut_width(body_mass_g, 200)`     n
#>   <fct>                         <int>
#> 1 [2.7e+03,2.9e+03]                 7
#> 2 (2.9e+03,3.1e+03]                10
#> 3 (3.1e+03,3.3e+03]                23
#> 4 (3.3e+03,3.5e+03]                38
#> 5 (3.5e+03,3.7e+03]                39
#> 6 (3.7e+03,3.9e+03]                37
#> # … with 13 more rows
…
