6 - Data tidying
…
Uma delas é muito mais fácil de utilizar no tidyverse

table1
#> # A tibble: 6 × 4
#>   country      year  cases population
#>   <chr>       <dbl>  <dbl>      <dbl>
#> 1 Afghanistan  1999    745   19987071
#> 2 Afghanistan  2000   2666   20595360
#> 3 Brazil       1999  37737  172006362
#> 4 Brazil       2000  80488  174504898
#> 5 China        1999 212258 1272915272
#> 6 China        2000 213766 1280428583

table2
#> # A tibble: 12 × 4
#>   country      year type           count
#>   <chr>       <dbl> <chr>          <dbl>
#> 1 Afghanistan  1999 cases            745
#> 2 Afghanistan  1999 population  19987071
#> 3 Afghanistan  2000 cases           2666
#> 4 Afghanistan  2000 population  20595360
#> 5 Brazil       1999 cases          37737
#> 6 Brazil       1999 population 172006362
#> # … with 6 more rows
…
tidyr oferece duas funções para pivotar os dados:

pivot_longer() que aumenta as linhas e reduz as colunas

pivot_wider() que aumenta as colunas e reduz as linhas

Vamos ver uma série de exemplos para pegar o jeito!

6.3.1 Dados nos nomes de colunas

O dataset billboard registra a classificação das músicas 100 músicas mais ouvidas na billboard no ano 2000

billboard
#> # A tibble: 317 × 79
#>   artist     track date.ent…¹   wk1   wk2   wk3   wk4   wk5   wk6   wk7   wk8
#>   <chr>      <chr> <date>     <dbl> <dbl> <dbl> <dbl> <dbl> <dbl> <dbl> <dbl>
#> 1 2 Pac      Baby… 2000-02-26    87    82    72    77    87    94    99    NA
#> 2 2Ge+her    The … 2000-09-02    91    87    92    NA    NA    NA    NA    NA
#> 3 3 Doors D… Kryp… 2000-04-08    81    70    68    67    66    57    54    53
#> 4 3 Doors D… Loser 2000-10-21    76    76    72    69    67    65    55    59
#> 5 504 Boyz   Wobb… 2000-04-15    57    34    25    17    17    31    36    49
#> 6 98^0       Give… 2000-08-19    51    39    34    26    26    19     2     2
#> # … with 311 more rows, 68 more variables: wk9 <dbl>, wk10 <dbl>,
#> #   wk11 <dbl>, wk12 <dbl>, wk13 <dbl>, wk14 <dbl>, wk15 <dbl>, wk16 <dbl>,
#> #   wk17 <dbl>, wk18 <dbl>, wk19 <dbl>, wk20 <dbl>, wk21 <dbl>, wk22 <dbl>,
#> #   wk23 <dbl>, wk24 <dbl>, wk25 <dbl>, wk26 <dbl>, wk27 <dbl>, wk28 <dbl>,
#> #   wk29 <dbl>, wk30 <dbl>, wk31 <dbl>, wk32 <dbl>, wk33 <dbl>, wk34 <dbl>,
#> #   wk35 <dbl>, wk36 <dbl>, wk37 <dbl>, wk38 <dbl>, wk39 <dbl>, wk40 <dbl>,
#> #   wk41 <dbl>, wk42 <dbl>, wk43 <dbl>, wk44 <dbl>, wk45 <dbl>, …
…
values_to nomeia a variável armazenada nas células

"rank"

Na prática temos a seguinte chamada. O que podem observar no resultado?

billboard |> 
  pivot_longer(
    cols = starts_with("wk"), 
    names_to = "week", 
    values_to = "rank"
  )

#> # A tibble: 24,092 × 5
#>    artist track                   date.entered week   rank
#>    <chr>  <chr>                   <date>       <chr> <dbl>
#>  1 2 Pac  Baby Don't Cry (Keep... 2000-02-26   wk1      87
#>  2 2 Pac  Baby Don't Cry (Keep... 2000-02-26   wk2      82
#>  3 2 Pac  Baby Don't Cry (Keep... 2000-02-26   wk3      72
#>  4 2 Pac  Baby Don't Cry (Keep... 2000-02-26   wk4      77
#>  5 2 Pac  Baby Don't Cry (Keep... 2000-02-26   wk5      87
#>  6 2 Pac  Baby Don't Cry (Keep... 2000-02-26   wk6      94
#>  7 2 Pac  Baby Don't Cry (Keep... 2000-02-26   wk7      99
#>  8 2 Pac  Baby Don't Cry (Keep... 2000-02-26   wk8      NA
#>  9 2 Pac  Baby Don't Cry (Keep... 2000-02-26   wk9      NA
#> 10 2 Pac  Baby Don't Cry (Keep... 2000-02-26   wk10     NA
#> # … with 24,082 more rows
…
essa função extrai o primeiro número de uma string

billboard_tidy <- billboard |> 
  pivot_longer(
    cols = starts_with("wk"), 
    names_to = "week", 
    values_to = "rank",
    values_drop_na = TRUE
  ) |> 
  mutate(
    week = parse_number(week)
  )
billboard_tidy

# A tibble: 5,307 × 5
   artist  track                   date.entered  week  rank
   <chr>   <chr>                   <date>       <dbl> <dbl>
 1 2 Pac   Baby Don't Cry (Keep... 2000-02-26       1    87
 2 2 Pac   Baby Don't Cry (Keep... 2000-02-26       2    82
 3 2 Pac   Baby Don't Cry (Keep... 2000-02-26       3    72
 4 2 Pac   Baby Don't Cry (Keep... 2000-02-26       4    77
 5 2 Pac   Baby Don't Cry (Keep... 2000-02-26       5    87
 6 2 Pac   Baby Don't Cry (Keep... 2000-02-26       6    94
 7 2 Pac   Baby Don't Cry (Keep... 2000-02-26       7    99
 8 2Ge+her The Hardest Part Of ... 2000-09-02       1    91
 9 2Ge+her The Hardest Part Of ... 2000-09-02       2    87
10 2Ge+her The Hardest Part Of ... 2000-09-02       3    92
# … with 5,297 more rows
…
names_to vai receber um vetor com os nomes de colunas

names_sep vai informar qual o separador dos nomes das colunas

Poderíamos usar o names_pattern para usar uma expressão regular mais complexa caso alguém tenha curiosidade vale ir atrás.

who2 |> 
  pivot_longer(
    cols = !(country:year),
    names_to = c("diagnosis", "gender", "age"), 
    names_sep = "_",
    values_to = "count"
  )

#> # A tibble: 405,440 × 6
#>   country      year diagnosis gender age   count
#>   <chr>       <dbl> <chr>     <chr>  <chr> <dbl>
#> 1 Afghanistan  1980 sp        m      014      NA
#> 2 Afghanistan  1980 sp        m      1524     NA
#> 3 Afghanistan  1980 sp        m      2534     NA
#> 4 Afghanistan  1980 sp        m      3544     NA
#> 5 Afghanistan  1980 sp        m      4554     NA
#> 6 Afghanistan  1980 sp        m      5564     NA
#> # … with 405,434 more rows
…
parse_number para converter child1 em 1

household |> 
  pivot_longer(
    cols = !family, 
    names_to = c(".value", "child"), 
    names_sep = "_", 
    values_drop_na = TRUE
  ) |> 
  mutate(
    child = parse_number(child)
  )

#> # A tibble: 9 × 4
#>   family child dob        name 
#>    <int> <dbl> <date>     <chr>
#> 1      1     1 1998-11-26 Susan
#> 2      1     2 2000-01-29 Jose 
#> 3      2     1 1996-06-22 Mark 
#> 4      3     1 2002-07-11 Sam  
#> 5      3     2 2004-04-05 Seth 
#> 6      4     1 2004-10-10 Craig
#> # … with 3 more rows
…
6.3.5 Horizontalizando os dados

vimos o pivot_longer para datasets com valores nas colunas

vemos usar o pivot_wilder quando uma observação está espalhada por múltiplas linhas

Esses casos são mais comuns em dados governamentais

Vamos começar com o cms_patient_experience

Dataset do Centers of Medicare and Medicaid sobre a experiência de pacientes

cms_patient_experience
#> # A tibble: 500 × 5
#>   org_pac_id org_nm                     measure_cd   measure_title    prf_r…¹
#>   <chr>      <chr>                      <chr>        <chr>              <dbl>
#> 1 0446157747 USC CARE MEDICAL GROUP INC CAHPS_GRP_1  CAHPS for MIPS …      63
#> 2 0446157747 USC CARE MEDICAL GROUP INC CAHPS_GRP_2  CAHPS for MIPS …      87
#> 3 0446157747 USC CARE MEDICAL GROUP INC CAHPS_GRP_3  CAHPS for MIPS …      86
#> 4 0446157747 USC CARE MEDICAL GROUP INC CAHPS_GRP_5  CAHPS for MIPS …      57
#> 5 0446157747 USC CARE MEDICAL GROUP INC CAHPS_GRP_8  CAHPS for MIPS …      85
#> 6 0446157747 USC CARE MEDICAL GROUP INC CAHPS_GRP_12 CAHPS for MIPS …      24
#> # … with 494 more rows, and abbreviated variable name ¹​prf_rate
…
Vamos usar a measure_cd por enquanto, mas numa análise de verdade seria bom pensar num nome curto e significativo pra cada variável

pivot_wider() é o oposto do pivot_longer(), nesse caso vamos passar:

as colunas existentes que definem valores values_from

os nomes das colunas names_from()

cms_patient_experience |> 
  pivot_wider(
    names_from = measure_cd,
    values_from = prf_rate
  )

#> # A tibble: 500 × 9
#>   org_pac_id org_nm   measu…¹ CAHPS…² CAHPS…³ CAHPS…⁴ CAHPS…⁵ CAHPS…⁶ CAHPS…⁷
#>   <chr>      <chr>    <chr>     <dbl>   <dbl>   <dbl>   <dbl>   <dbl>   <dbl>
#> 1 0446157747 USC CAR… CAHPS …      63      NA      NA      NA      NA      NA
#> 2 0446157747 USC CAR… CAHPS …      NA      87      NA      NA      NA      NA
#> 3 0446157747 USC CAR… CAHPS …      NA      NA      86      NA      NA      NA
#> 4 0446157747 USC CAR… CAHPS …      NA      NA      NA      57      NA      NA
#> 5 0446157747 USC CAR… CAHPS …      NA      NA      NA      NA      85      NA
#> 6 0446157747 USC CAR… CAHPS …      NA      NA      NA      NA      NA      24
#> # … with 494 more rows, and abbreviated variable names ¹​measure_title,
#> #   ²​CAHPS_GRP_1, ³​CAHPS_GRP_2, ⁴​CAHPS_GRP_3, ⁵​CAHPS_GRP_5, ⁶​CAHPS_GRP_8,
#> #   ⁷​CAHPS_GRP_12
…
Isso é porque o pivot_wider() vai tentar preservar todas as colunas existentes

measure_title é mantida e tem seis observações para cada organização

Para resolver esse problema vamos avisar quais colunas identificam cada linha

cms_patient_experience |> 
  pivot_wider(
    id_cols = starts_with("org"),
    names_from = measure_cd,
    values_from = prf_rate
  )

#> # A tibble: 95 × 8
#>   org_pac_id org_nm           CAHPS…¹ CAHPS…² CAHPS…³ CAHPS…⁴ CAHPS…⁵ CAHPS…⁶
#>   <chr>      <chr>              <dbl>   <dbl>   <dbl>   <dbl>   <dbl>   <dbl>
#> 1 0446157747 USC CARE MEDICA…      63      87      86      57      85      24
#> 2 0446162697 ASSOCIATION OF …      59      85      83      63      88      22
#> 3 0547164295 BEAVER MEDICAL …      49      NA      75      44      73      12
#> 4 0749333730 CAPE PHYSICIANS…      67      84      85      65      82      24
#> 5 0840104360 ALLIANCE PHYSIC…      66      87      87      64      87      28
#> 6 0840109864 REX HOSPITAL INC      73      87      84      67      91      30
#> # … with 89 more rows, and abbreviated variable names ¹​CAHPS_GRP_1,
#> #   ²​CAHPS_GRP_2, ³​CAHPS_GRP_3, ⁴​CAHPS_GRP_5, ⁵​CAHPS_GRP_8, ⁶​CAHPS_GRP_12
…
dados mais legíveis

manipular dados pragmaticamente

6.4.1 Apresentando dados para humanos

Vamos contar os diamantes do dataset diamonds por cor e clareza

diamonds |> 
  count(clarity, color)

diamonds |> 
  count(clarity, color)
#> # A tibble: 56 × 3
#>   clarity color     n
#>   <ord>   <ord> <int>
#> 1 I1      D        42
#> 2 I1      E       102
#> 3 I1      F       143
#> 4 I1      G       150
#> 5 I1      H       162
#> 6 I1      I        92
#> # … with 50 more rows

dplyr::count() produz tidy data:

bom para futuras manipulações, mas ruim para outros humanos lerem

Como podemos melhorar?

diamonds |> 
  count(clarity, color) |> 
  pivot_wider(
    names_from = color, 
    values_from = n
  )
#> # A tibble: 8 × 8
#>   clarity     D     E     F     G     H     I     J
#>   <ord>   <int> <int> <int> <int> <int> <int> <int>
#> 1 I1         42   102   143   150   162    92    50
#> 2 SI2      1370  1713  1609  1548  1563   912   479
#> 3 SI1      2083  2426  2131  1976  2275  1424   750
#> 4 VS2      1697  2470  2201  2347  1643  1169   731
#> 5 VS1       705  1281  1364  2148  1169   962   542
#> 6 VVS2      553   991   975  1443   608   365   131
#> # … with 2 more rows
6.4.3 Computação pragmática

As vezes é mais fácil de responder uma pergunta usando dados untidy

Se quiser por exemplo o total de valores faltantes no cms_patient_experience

é mais fácil trabalhar com ele untidy:

cms_patient_experience |> 
  group_by(org_pac_id) |> 
  summarize(
    n_miss = sum(is.na(prf_rate)),
    n = n(),
  )
#> # A tibble: 95 × 3
#>   org_pac_id n_miss     n
#>   <chr>       <int> <int>
#> 1 0446157747      0     6
#> 2 0446162697      0     6
#> 3 0547164295      1     6
#> 4 0749333730      0     6
#> 5 0840104360      0     6
#> 6 0840109864      0     6
#> # … with 89 more rows
…
Normalmente computar um número:

fixo de valores (diferenças e proporções) é mais fácil com dados em colunas

variável de valores (somas e médias) é mais fácil com dados em linhas

Não tenha medo de arrumar e desarrumar

Vamos explorar essa ideia com o cms_patient_care

esse dataset tem uma estrutura similar a cms_patient_experience

cms_patient_care
#> # A tibble: 252 × 5
#>   ccn    facility_name   measure_abbr      score type       
#>   <chr>  <chr>           <chr>             <dbl> <chr>      
#> 1 011500 BAPTIST HOSPICE beliefs_addressed 202   denominator
#> 2 011500 BAPTIST HOSPICE beliefs_addressed 100   observed   
#> 3 011500 BAPTIST HOSPICE composite_process 202   denominator
#> 4 011500 BAPTIST HOSPICE composite_process  88.1 observed   
#> 5 011500 BAPTIST HOSPICE dyspena_treatment 110   denominator
#> 6 011500 BAPTIST HOSPICE dyspena_treatment  99.1 observed   
#> # … with 246 more rows
…
beliefs_addressed, composite_process, dyspena_treatment…

sobre 14 diferentes instalações:

identidicadas por ccn e facility_name

Cada medida é registrada em duas linhas da coluna score

quantos pacientes responderam a pergunta (denominator)

a porcentagem de pacientes que responderam sim (observed)

cms_patient_care
#> # A tibble: 252 × 5
#>   ccn    facility_name   measure_abbr      score type       
#>   <chr>  <chr>           <chr>             <dbl> <chr>      
#> 1 011500 BAPTIST HOSPICE beliefs_addressed 202   denominator
#> 2 011500 BAPTIST HOSPICE beliefs_addressed 100   observed   
#> 3 011500 BAPTIST HOSPICE composite_process 202   denominator
#> 4 011500 BAPTIST HOSPICE composite_process  88.1 observed   
#> 5 011500 BAPTIST HOSPICE dyspena_treatment 110   denominator
#> 6 011500 BAPTIST HOSPICE dyspena_treatment  99.1 observed   
#> # … with 246 more rows
…
você pode pivotar type para a as colunas:

Dessa forma:

cms_patient_care |> 
  pivot_wider(
    names_from = type,
    values_from = score
  ) |> 
  mutate(
    numerator = round(observed / 100 * denominator)
  )

#> # A tibble: 126 × 6
#>   ccn    facility_name   measure_abbr      denominator observed numerator
#>   <chr>  <chr>           <chr>                   <dbl>    <dbl>     <dbl>
#> 1 011500 BAPTIST HOSPICE beliefs_addressed         202    100         202
#> 2 011500 BAPTIST HOSPICE composite_process         202     88.1       178
#> 3 011500 BAPTIST HOSPICE dyspena_treatment         110     99.1       109
#> 4 011500 BAPTIST HOSPICE dyspnea_screening         202    100         202
#> 5 011500 BAPTIST HOSPICE opioid_bowel               61    100          61
#> 6 011500 BAPTIST HOSPICE pain_assessment           107    100         107
#> # … with 120 more rows

cms_patient_care
#> # A tibble: 252 × 5
#>   ccn    facility_name   measure_abbr      score type       
#>   <chr>  <chr>           <chr>             <dbl> <chr>      
#> 1 011500 BAPTIST HOSPICE beliefs_addressed 202   denominator
#> 2 011500 BAPTIST HOSPICE beliefs_addressed 100   observed   
#> 3 011500 BAPTIST HOSPICE composite_process 202   denominator
#> 4 011500 BAPTIST HOSPICE composite_process  88.1 observed   
#> 5 011500 BAPTIST HOSPICE dyspena_treatment 110   denominator
#> 6 011500 BAPTIST HOSPICE dyspena_treatment  99.1 observed   
#> # … with 246 more rows
…
cms_patient_care
#> # A tibble: 252 × 5
#>   ccn    facility_name   measure_abbr      score type       
#>   <chr>  <chr>           <chr>             <dbl> <chr>      
#> 1 011500 BAPTIST HOSPICE beliefs_addressed 202   denominator
#> 2 011500 BAPTIST HOSPICE beliefs_addressed 100   observed   
#> 3 011500 BAPTIST HOSPICE composite_process 202   denominator
#> 4 011500 BAPTIST HOSPICE composite_process  88.1 observed   
#> 5 011500 BAPTIST HOSPICE dyspena_treatment 110   denominator
#> 6 011500 BAPTIST HOSPICE dyspena_treatment  99.1 observed   
#> # … with 246 more rows
…
