…
- Ordena por ordem de decolagem, que está separada nas quatro variáveis: ano, mês, dia e hora da decolagem

```r
#> # A tibble: 336,776 × 19
#>    year month   day dep_time sched_…¹ dep_d…² arr_t…³ sched…⁴ arr_d…⁵ carrier
#>   <int> <int> <int>    <int>    <int>   <dbl>   <int>   <int>   <dbl> <chr>  
#> 1  2013     1     1      517      515       2     830     819      11 UA     
#> 2  2013     1     1      533      529       4     850     830      20 UA     
#> 3  2013     1     1      542      540       2     923     850      33 AA     
#> 4  2013     1     1      544      545      -1    1004    1022     -18 B6     
#> 5  2013     1     1      554      600      -6     812     837     -25 DL     
#> 6  2013     1     1      554      558      -4     740     728      12 UA     
#> # … with 336,770 more rows, 9 more variables: flight <int>, tailnum <chr>,
#> #   origin <chr>, dest <chr>, air_time <dbl>, distance <dbl>, hour <dbl>,
#> #   minute <dbl>, time_hour <dttm>, and abbreviated variable names
#> #   ¹​sched_dep_time, ²​dep_delay, ³​arr_time, ⁴​sched_arr_time, ⁵​arr_delay
```
…
. . .

- Vamos deixar mais exato o "hora certa": 
    - voos que sairam com no máximo 10 minutos de atraso ou adiantamento 
. . .

- (sim, eu também não sabia que voos poderiam sair adiantados)

---

```r
flights |> 
  filter(dep_delay <= 10 & dep_delay >= -10) |> 
  arrange(desc(arr_delay))
#> # A tibble: 239,109 × 19
#>    year month   day dep_time sched_…¹ dep_d…² arr_t…³ sched…⁴ arr_d…⁵ carrier
#>   <int> <int> <int>    <int>    <int>   <dbl>   <int>   <int>   <dbl> <chr>  
#> 1  2013    11     1      658      700      -2    1329    1015     194 VX     
#> 2  2013     4    18      558      600      -2    1149     850     179 AA     
#> 3  2013     7     7     1659     1700      -1    2050    1823     147 US     
#> 4  2013     7    22     1606     1615      -9    2056    1831     145 DL     
#> 5  2013     9    19      648      641       7    1035     810     145 UA     
#> 6  2013     4    18      655      700      -5    1213     950     143 AA     
#> # … with 239,103 more rows, 9 more variables: flight <int>, tailnum <chr>,
#> #   origin <chr>, dest <chr>, air_time <dbl>, distance <dbl>, hour <dbl>,
#> #   minute <dbl>, time_hour <dttm>, and abbreviated variable names
#> #   ¹​sched_dep_time, ²​dep_delay, ³​arr_time, ⁴​sched_arr_time, ⁵​arr_delay
```
…
--- 

- O que esse código faz? 
```r
flights |> 
  distinct(origin, dest)
```
. . .

```r
#> # A tibble: 224 × 2
#>   origin dest 
#>   <chr>  <chr>
#> 1 EWR    IAH  
#> 2 LGA    IAH  
#> 3 JFK    MIA  
#> 4 JFK    BQN  
#> 5 LGA    ATL  
#> 6 EWR    ORD  
#> # … with 218 more rows
```
…
