…
## 2. Compare `dep_time`, `sched_dep_time` e `dep_delay`. Como você espera que esses três números se relacionem? 

## 4. O que acontece se você incluir um nome de variável múltiplas vezes em uma chamada `select()`?

## 5. O que a função `any_of()` faz? Como ela pode ser útil com o seguinte vetor?
```r
variables <- c("year", "month", "day", "dep_delay", "arr_delay")
```

. . .

```r
flights |>
  select(any_of(variables))
# A tibble: 336,776 × 5
    year month   day dep_delay arr_delay
   <int> <int> <int>     <dbl>     <dbl>
#>  1  2013     1     1         2        11
#>  2  2013     1     1         4        20
#>  3  2013     1     1         2        33
#>  4  2013     1     1        -1       -18
#>  5  2013     1     1        -6       -25
#>  6  2013     1     1        -4        12
#>  7  2013     1     1        -5        19
#>  8  2013     1     1        -3       -14
#>  9  2013     1     1        -3        -8
#> 10  2013     1     1        -2         8
#> # … with 336,766 more rows
#> # ℹ Use `print(n = ...)` to see more rows
```
…
